# This file was created with Minddesk Qubicle 3.0
# Get Qubicle at www.getqubicle.com

mtllib lantern.mtl

vn 0.0 0.0 1.0
vn 0.0 0.0 -1.0
vn -1.0 0.0 0.0
vn 1.0 0.0 0.0
vn 0.0 1.0 0.0
vn 0.0 -1.0 0.0

v 1.00000 28.00000 0.00000
v 1.00000 10.00000 0.00000
v 0.00000 10.00000 0.00000
v 0.00000 28.00000 0.00000
v -4.00000 31.00000 -1.00000
v -4.00000 28.00000 -1.00000
v -7.00000 28.00000 -1.00000
v -7.00000 31.00000 -1.00000
v 1.00000 38.00000 0.00000
v 1.00000 35.00000 0.00000
v -1.00000 35.00000 0.00000
v -1.00000 38.00000 0.00000
v 1.00000 6.00000 -1.00000
v 1.00000 3.00000 -1.00000
v 0.00000 3.00000 -1.00000
v 0.00000 6.00000 -1.00000
v 1.00000 34.00000 -1.00000
v 1.00000 31.00000 -1.00000
v 0.00000 31.00000 -1.00000
v 0.00000 34.00000 -1.00000
v -7.00000 41.00000 0.00000
v -7.00000 37.00000 0.00000
v -8.00000 37.00000 0.00000
v -8.00000 41.00000 0.00000
v 0.00000 6.00000 0.00000
v 0.00000 3.00000 0.00000
v -1.00000 3.00000 0.00000
v -1.00000 6.00000 0.00000
v 0.00000 34.00000 0.00000
v 0.00000 31.00000 0.00000
v -1.00000 31.00000 0.00000
v -1.00000 34.00000 0.00000
v 1.00000 9.00000 0.00000
v 1.00000 6.00000 0.00000
v 0.00000 9.00000 0.00000
v 2.00000 6.00000 0.00000
v 2.00000 3.00000 0.00000
v 1.00000 3.00000 0.00000
v 2.00000 34.00000 0.00000
v 2.00000 31.00000 0.00000
v 1.00000 31.00000 0.00000
v 1.00000 34.00000 0.00000
v 2.00000 3.00000 -1.00000
v 2.00000 1.00000 -1.00000
v -1.00000 1.00000 -1.00000
v -1.00000 3.00000 -1.00000
v 1.00000 42.00000 0.00000
v 1.00000 40.00000 0.00000
v -1.00000 40.00000 0.00000
v -1.00000 42.00000 0.00000
v -5.00000 35.00000 -1.00000
v -5.00000 33.00000 -1.00000
v -6.00000 33.00000 -1.00000
v -6.00000 35.00000 -1.00000
v 1.00000 30.00000 -1.00000
v 1.00000 28.00000 -1.00000
v 0.00000 28.00000 -1.00000
v 0.00000 30.00000 -1.00000
v -6.00000 35.00000 0.00000
v -6.00000 33.00000 0.00000
v -7.00000 33.00000 0.00000
v -7.00000 35.00000 0.00000
v -4.00000 35.00000 0.00000
v -4.00000 33.00000 0.00000
v -5.00000 33.00000 0.00000
v -5.00000 35.00000 0.00000
v 0.00000 30.00000 0.00000
v -1.00000 28.00000 0.00000
v -1.00000 30.00000 0.00000
v 0.00000 38.00000 0.00000
v 0.00000 40.00000 0.00000
v 1.00000 44.00000 0.00000
v 0.00000 42.00000 0.00000
v 0.00000 44.00000 0.00000
v 2.00000 30.00000 0.00000
v 2.00000 28.00000 0.00000
v 1.00000 30.00000 0.00000
v -3.00000 32.00000 -2.00000
v -3.00000 31.00000 -2.00000
v -8.00000 31.00000 -2.00000
v -8.00000 32.00000 -2.00000
v -1.00000 43.00000 0.00000
v -6.00000 42.00000 0.00000
v -6.00000 43.00000 0.00000
v -4.00000 33.00000 -2.00000
v -4.00000 32.00000 -2.00000
v -7.00000 32.00000 -2.00000
v -7.00000 33.00000 -2.00000
v 2.00000 1.00000 -2.00000
v 2.00000 0.00000 -2.00000
v -1.00000 0.00000 -2.00000
v -1.00000 1.00000 -2.00000
v -5.00000 37.00000 0.00000
v -5.00000 36.00000 0.00000
v -7.00000 36.00000 0.00000
v -2.00000 41.00000 0.00000
v -2.00000 40.00000 0.00000
v -4.00000 40.00000 0.00000
v -4.00000 41.00000 0.00000
v -1.00000 39.00000 0.00000
v -3.00000 39.00000 0.00000
v -3.00000 40.00000 0.00000
v -7.00000 33.00000 -1.00000
v -7.00000 32.00000 -1.00000
v -8.00000 32.00000 -1.00000
v -8.00000 33.00000 -1.00000
v -3.00000 33.00000 -1.00000
v -3.00000 32.00000 -1.00000
v -4.00000 32.00000 -1.00000
v -4.00000 33.00000 -1.00000
v -1.00000 0.00000 -1.00000
v -2.00000 0.00000 -1.00000
v -2.00000 1.00000 -1.00000
v 1.00000 10.00000 -1.00000
v 1.00000 9.00000 -1.00000
v 0.00000 9.00000 -1.00000
v 0.00000 10.00000 -1.00000
v 1.00000 45.00000 -1.00000
v 1.00000 44.00000 -1.00000
v 0.00000 44.00000 -1.00000
v 0.00000 45.00000 -1.00000
v 3.00000 1.00000 -1.00000
v 3.00000 0.00000 -1.00000
v 2.00000 0.00000 -1.00000
v -6.00000 41.00000 0.00000
v -7.00000 42.00000 0.00000
v -6.00000 36.00000 0.00000
v -4.00000 38.00000 0.00000
v -4.00000 37.00000 0.00000
v -5.00000 38.00000 0.00000
v -4.00000 42.00000 0.00000
v -5.00000 41.00000 0.00000
v -5.00000 42.00000 0.00000
v -2.00000 42.00000 0.00000
v -3.00000 41.00000 0.00000
v -3.00000 42.00000 0.00000
v -2.00000 38.00000 0.00000
v -2.00000 39.00000 0.00000
v -1.00000 44.00000 0.00000
v -2.00000 43.00000 0.00000
v -2.00000 44.00000 0.00000
v -1.00000 9.00000 0.00000
v -1.00000 10.00000 0.00000
v 0.00000 45.00000 0.00000
v -1.00000 45.00000 0.00000
v 0.00000 35.00000 0.00000
v 1.00000 46.00000 0.00000
v 1.00000 45.00000 0.00000
v 0.00000 46.00000 0.00000
v 2.00000 10.00000 0.00000
v 2.00000 9.00000 0.00000
v 2.00000 45.00000 0.00000
v 2.00000 44.00000 0.00000
v 0.00000 28.00000 1.00000
v 0.00000 10.00000 1.00000
v 1.00000 10.00000 1.00000
v 1.00000 28.00000 1.00000
v -7.00000 31.00000 2.00000
v -7.00000 28.00000 2.00000
v -4.00000 28.00000 2.00000
v -4.00000 31.00000 2.00000
v -1.00000 38.00000 1.00000
v -1.00000 35.00000 1.00000
v 1.00000 35.00000 1.00000
v 1.00000 38.00000 1.00000
v -8.00000 41.00000 1.00000
v -8.00000 37.00000 1.00000
v -7.00000 37.00000 1.00000
v -7.00000 41.00000 1.00000
v -1.00000 6.00000 1.00000
v -1.00000 3.00000 1.00000
v 0.00000 3.00000 1.00000
v 0.00000 6.00000 1.00000
v -1.00000 34.00000 1.00000
v -1.00000 31.00000 1.00000
v 0.00000 31.00000 1.00000
v 0.00000 34.00000 1.00000
v 0.00000 9.00000 1.00000
v 1.00000 6.00000 1.00000
v 1.00000 9.00000 1.00000
v 1.00000 3.00000 1.00000
v 2.00000 3.00000 1.00000
v 2.00000 6.00000 1.00000
v 1.00000 34.00000 1.00000
v 1.00000 31.00000 1.00000
v 2.00000 31.00000 1.00000
v 2.00000 34.00000 1.00000
v 0.00000 6.00000 2.00000
v 0.00000 3.00000 2.00000
v 1.00000 3.00000 2.00000
v 1.00000 6.00000 2.00000
v 0.00000 34.00000 2.00000
v 0.00000 31.00000 2.00000
v 1.00000 31.00000 2.00000
v 1.00000 34.00000 2.00000
v -1.00000 3.00000 2.00000
v -1.00000 1.00000 2.00000
v 2.00000 1.00000 2.00000
v 2.00000 3.00000 2.00000
v -1.00000 42.00000 1.00000
v -1.00000 40.00000 1.00000
v 1.00000 40.00000 1.00000
v 1.00000 42.00000 1.00000
v -7.00000 35.00000 1.00000
v -7.00000 33.00000 1.00000
v -6.00000 33.00000 1.00000
v -6.00000 35.00000 1.00000
v -5.00000 35.00000 1.00000
v -5.00000 33.00000 1.00000
v -4.00000 33.00000 1.00000
v -4.00000 35.00000 1.00000
v -1.00000 30.00000 1.00000
v -1.00000 28.00000 1.00000
v 0.00000 30.00000 1.00000
v 0.00000 40.00000 1.00000
v 0.00000 38.00000 1.00000
v 0.00000 44.00000 1.00000
v 0.00000 42.00000 1.00000
v 1.00000 44.00000 1.00000
v 1.00000 30.00000 1.00000
v 2.00000 28.00000 1.00000
v 2.00000 30.00000 1.00000
v -6.00000 35.00000 2.00000
v -6.00000 33.00000 2.00000
v -5.00000 33.00000 2.00000
v -5.00000 35.00000 2.00000
v 0.00000 30.00000 2.00000
v 0.00000 28.00000 2.00000
v 1.00000 28.00000 2.00000
v 1.00000 30.00000 2.00000
v -6.00000 43.00000 1.00000
v -6.00000 42.00000 1.00000
v -1.00000 43.00000 1.00000
v -8.00000 32.00000 3.00000
v -8.00000 31.00000 3.00000
v -3.00000 31.00000 3.00000
v -3.00000 32.00000 3.00000
v -7.00000 33.00000 3.00000
v -7.00000 32.00000 3.00000
v -4.00000 32.00000 3.00000
v -4.00000 33.00000 3.00000
v -1.00000 1.00000 3.00000
v -1.00000 0.00000 3.00000
v 2.00000 0.00000 3.00000
v 2.00000 1.00000 3.00000
v -7.00000 36.00000 1.00000
v -5.00000 36.00000 1.00000
v -5.00000 37.00000 1.00000
v -4.00000 41.00000 1.00000
v -4.00000 40.00000 1.00000
v -2.00000 40.00000 1.00000
v -2.00000 41.00000 1.00000
v -3.00000 40.00000 1.00000
v -3.00000 39.00000 1.00000
v -1.00000 39.00000 1.00000
v -7.00000 42.00000 1.00000
v -6.00000 41.00000 1.00000
v -6.00000 36.00000 1.00000
v -5.00000 38.00000 1.00000
v -4.00000 37.00000 1.00000
v -4.00000 38.00000 1.00000
v -5.00000 42.00000 1.00000
v -5.00000 41.00000 1.00000
v -4.00000 42.00000 1.00000
v -3.00000 42.00000 1.00000
v -3.00000 41.00000 1.00000
v -2.00000 42.00000 1.00000
v -2.00000 39.00000 1.00000
v -2.00000 38.00000 1.00000
v -2.00000 44.00000 1.00000
v -2.00000 43.00000 1.00000
v -1.00000 44.00000 1.00000
v -1.00000 10.00000 1.00000
v -1.00000 9.00000 1.00000
v -1.00000 45.00000 1.00000
v 0.00000 45.00000 1.00000
v 0.00000 35.00000 1.00000
v 0.00000 46.00000 1.00000
v 1.00000 45.00000 1.00000
v 1.00000 46.00000 1.00000
v 2.00000 9.00000 1.00000
v 2.00000 10.00000 1.00000
v 2.00000 44.00000 1.00000
v 2.00000 45.00000 1.00000
v -8.00000 33.00000 2.00000
v -8.00000 32.00000 2.00000
v -7.00000 32.00000 2.00000
v -7.00000 33.00000 2.00000
v -4.00000 33.00000 2.00000
v -4.00000 32.00000 2.00000
v -3.00000 32.00000 2.00000
v -3.00000 33.00000 2.00000
v -2.00000 1.00000 2.00000
v -2.00000 0.00000 2.00000
v -1.00000 0.00000 2.00000
v 0.00000 10.00000 2.00000
v 0.00000 9.00000 2.00000
v 1.00000 9.00000 2.00000
v 1.00000 10.00000 2.00000
v 0.00000 45.00000 2.00000
v 0.00000 44.00000 2.00000
v 1.00000 44.00000 2.00000
v 1.00000 45.00000 2.00000
v 2.00000 0.00000 2.00000
v 3.00000 0.00000 2.00000
v 3.00000 1.00000 2.00000
v -8.00000 33.00000 0.00000
v -3.00000 33.00000 0.00000
v -8.00000 33.00000 1.00000
v -3.00000 33.00000 1.00000
v -8.00000 31.00000 2.00000
v -8.00000 31.00000 -1.00000
v -3.00000 31.00000 -1.00000
v -3.00000 31.00000 2.00000

vt 0.01563 0.29688
vt 0.01563 0.01563
vt 0.03125 0.01563
vt 0.03125 0.29688
vt 0.06250 0.29688
vt 0.06250 0.01563
vt 0.07813 0.01563
vt 0.07813 0.29688
vt 0.10938 0.29688
vt 0.10938 0.01563
vt 0.12500 0.01563
vt 0.12500 0.29688
vt 0.15625 0.29688
vt 0.15625 0.01563
vt 0.17188 0.01563
vt 0.17188 0.29688
vt 0.20313 0.17188
vt 0.20313 0.01563
vt 0.21875 0.01563
vt 0.21875 0.17188
vt 0.25000 0.07813
vt 0.25000 0.01563
vt 0.26563 0.01563
vt 0.26563 0.07813
vt 0.29688 0.07813
vt 0.29688 0.01563
vt 0.31250 0.01563
vt 0.31250 0.07813
vt 0.34375 0.07813
vt 0.34375 0.01563
vt 0.35938 0.01563
vt 0.35938 0.07813
vt 0.39063 0.07813
vt 0.39063 0.01563
vt 0.40625 0.01563
vt 0.40625 0.07813
vt 0.43750 0.06250
vt 0.43750 0.01563
vt 0.51563 0.01563
vt 0.51563 0.06250
vt 0.54688 0.06250
vt 0.54688 0.01563
vt 0.59375 0.01563
vt 0.59375 0.06250
vt 0.62500 0.06250
vt 0.62500 0.01563
vt 0.67188 0.01563
vt 0.67188 0.06250
vt 0.70313 0.06250
vt 0.70313 0.01563
vt 0.75000 0.01563
vt 0.75000 0.06250
vt 0.78125 0.06250
vt 0.78125 0.01563
vt 0.82813 0.01563
vt 0.82813 0.06250
vt 0.85938 0.06250
vt 0.85938 0.01563
vt 0.90625 0.01563
vt 0.90625 0.06250
vt 0.93750 0.06250
vt 0.93750 0.01563
vt 0.96875 0.01563
vt 0.96875 0.06250
vt 0.25000 0.15625
vt 0.25000 0.10938
vt 0.28125 0.10938
vt 0.28125 0.15625
vt 0.31250 0.15625
vt 0.31250 0.10938
vt 0.32813 0.10938
vt 0.32813 0.15625
vt 0.35938 0.15625
vt 0.35938 0.10938
vt 0.37500 0.10938
vt 0.37500 0.15625
vt 0.40625 0.15625
vt 0.40625 0.10938
vt 0.42188 0.10938
vt 0.42188 0.15625
vt 0.45313 0.15625
vt 0.45313 0.10938
vt 0.46875 0.10938
vt 0.46875 0.15625
vt 0.50000 0.15625
vt 0.50000 0.10938
vt 0.51563 0.10938
vt 0.51563 0.15625
vt 0.54688 0.15625
vt 0.54688 0.10938
vt 0.56250 0.10938
vt 0.56250 0.15625
vt 0.59375 0.15625
vt 0.59375 0.10938
vt 0.60938 0.10938
vt 0.60938 0.15625
vt 0.64063 0.15625
vt 0.64063 0.10938
vt 0.65625 0.10938
vt 0.65625 0.15625
vt 0.68750 0.15625
vt 0.68750 0.10938
vt 0.70313 0.10938
vt 0.70313 0.15625
vt 0.73438 0.15625
vt 0.73438 0.10938
vt 0.75000 0.10938
vt 0.75000 0.15625
vt 0.78125 0.15625
vt 0.78125 0.10938
vt 0.79688 0.10938
vt 0.79688 0.15625
vt 0.82813 0.15625
vt 0.82813 0.10938
vt 0.84375 0.10938
vt 0.84375 0.15625
vt 0.87500 0.15625
vt 0.87500 0.10938
vt 0.89063 0.10938
vt 0.89063 0.15625
vt 0.92188 0.15625
vt 0.92188 0.10938
vt 0.93750 0.10938
vt 0.93750 0.15625
vt 0.96875 0.15625
vt 0.96875 0.10938
vt 0.98438 0.10938
vt 0.98438 0.15625
vt 0.20313 0.25000
vt 0.20313 0.20313
vt 0.21875 0.20313
vt 0.21875 0.25000
vt 0.25000 0.25000
vt 0.25000 0.20313
vt 0.26563 0.20313
vt 0.26563 0.25000
vt 0.29688 0.25000
vt 0.29688 0.20313
vt 0.31250 0.20313
vt 0.31250 0.25000
vt 0.34375 0.25000
vt 0.34375 0.20313
vt 0.35938 0.20313
vt 0.35938 0.25000
vt 0.39063 0.25000
vt 0.39063 0.20313
vt 0.40625 0.20313
vt 0.40625 0.25000
vt 0.43750 0.25000
vt 0.43750 0.20313
vt 0.45313 0.20313
vt 0.45313 0.25000
vt 0.48438 0.25000
vt 0.48438 0.20313
vt 0.50000 0.20313
vt 0.50000 0.25000
vt 0.53125 0.25000
vt 0.53125 0.20313
vt 0.54688 0.20313
vt 0.54688 0.25000
vt 0.57813 0.25000
vt 0.57813 0.20313
vt 0.59375 0.20313
vt 0.59375 0.25000
vt 0.62500 0.25000
vt 0.62500 0.20313
vt 0.64063 0.20313
vt 0.64063 0.25000
vt 0.67188 0.25000
vt 0.67188 0.20313
vt 0.68750 0.20313
vt 0.68750 0.25000
vt 0.71875 0.25000
vt 0.71875 0.20313
vt 0.73438 0.20313
vt 0.73438 0.25000
vt 0.76563 0.25000
vt 0.76563 0.20313
vt 0.78125 0.20313
vt 0.78125 0.25000
vt 0.81250 0.25000
vt 0.81250 0.20313
vt 0.82813 0.20313
vt 0.82813 0.25000
vt 0.85938 0.25000
vt 0.85938 0.20313
vt 0.87500 0.20313
vt 0.87500 0.25000
vt 0.90625 0.25000
vt 0.90625 0.20313
vt 0.92188 0.20313
vt 0.92188 0.25000
vt 0.95313 0.25000
vt 0.95313 0.20313
vt 0.96875 0.20313
vt 0.96875 0.25000
vt 0.01563 0.37500
vt 0.01563 0.32813
vt 0.03125 0.32813
vt 0.03125 0.37500
vt 0.06250 0.35938
vt 0.06250 0.32813
vt 0.10938 0.32813
vt 0.10938 0.35938
vt 0.14063 0.35938
vt 0.14063 0.32813
vt 0.18750 0.32813
vt 0.18750 0.35938
vt 0.21875 0.35938
vt 0.21875 0.32813
vt 0.26563 0.32813
vt 0.26563 0.35938
vt 0.29688 0.35938
vt 0.29688 0.32813
vt 0.34375 0.32813
vt 0.34375 0.35938
vt 0.37500 0.35938
vt 0.37500 0.32813
vt 0.40625 0.32813
vt 0.40625 0.35938
vt 0.43750 0.35938
vt 0.43750 0.32813
vt 0.46875 0.32813
vt 0.46875 0.35938
vt 0.50000 0.35938
vt 0.50000 0.32813
vt 0.51563 0.32813
vt 0.51563 0.35938
vt 0.54688 0.35938
vt 0.54688 0.32813
vt 0.56250 0.32813
vt 0.56250 0.35938
vt 0.59375 0.35938
vt 0.59375 0.32813
vt 0.60938 0.32813
vt 0.60938 0.35938
vt 0.64063 0.35938
vt 0.64063 0.32813
vt 0.65625 0.32813
vt 0.65625 0.35938
vt 0.68750 0.35938
vt 0.68750 0.32813
vt 0.70313 0.32813
vt 0.70313 0.35938
vt 0.73438 0.35938
vt 0.73438 0.32813
vt 0.75000 0.32813
vt 0.75000 0.35938
vt 0.78125 0.35938
vt 0.78125 0.32813
vt 0.79688 0.32813
vt 0.79688 0.35938
vt 0.82813 0.35938
vt 0.82813 0.32813
vt 0.84375 0.32813
vt 0.84375 0.35938
vt 0.87500 0.35938
vt 0.87500 0.32813
vt 0.89063 0.32813
vt 0.89063 0.35938
vt 0.92188 0.35938
vt 0.92188 0.32813
vt 0.93750 0.32813
vt 0.93750 0.35938
vt 0.96875 0.35938
vt 0.96875 0.32813
vt 0.98438 0.32813
vt 0.98438 0.35938
vt 0.01563 0.43750
vt 0.01563 0.40625
vt 0.03125 0.40625
vt 0.03125 0.43750
vt 0.06250 0.43750
vt 0.06250 0.40625
vt 0.07813 0.40625
vt 0.07813 0.43750
vt 0.10938 0.43750
vt 0.10938 0.40625
vt 0.12500 0.40625
vt 0.12500 0.43750
vt 0.15625 0.43750
vt 0.15625 0.40625
vt 0.17188 0.40625
vt 0.17188 0.43750
vt 0.20313 0.43750
vt 0.20313 0.40625
vt 0.21875 0.40625
vt 0.21875 0.43750
vt 0.25000 0.43750
vt 0.25000 0.40625
vt 0.26563 0.40625
vt 0.26563 0.43750
vt 0.29688 0.43750
vt 0.29688 0.40625
vt 0.31250 0.40625
vt 0.31250 0.43750
vt 0.34375 0.43750
vt 0.34375 0.40625
vt 0.35938 0.40625
vt 0.35938 0.43750
vt 0.39063 0.43750
vt 0.39063 0.40625
vt 0.40625 0.40625
vt 0.40625 0.43750
vt 0.43750 0.43750
vt 0.43750 0.40625
vt 0.45313 0.40625
vt 0.45313 0.43750
vt 0.48438 0.43750
vt 0.48438 0.40625
vt 0.50000 0.40625
vt 0.50000 0.43750
vt 0.53125 0.43750
vt 0.53125 0.40625
vt 0.54688 0.40625
vt 0.54688 0.43750
vt 0.57813 0.43750
vt 0.57813 0.40625
vt 0.59375 0.40625
vt 0.59375 0.43750
vt 0.62500 0.43750
vt 0.62500 0.40625
vt 0.64063 0.40625
vt 0.64063 0.43750
vt 0.67188 0.43750
vt 0.67188 0.40625
vt 0.68750 0.40625
vt 0.68750 0.43750
vt 0.71875 0.43750
vt 0.71875 0.40625
vt 0.73438 0.40625
vt 0.73438 0.43750
vt 0.76563 0.43750
vt 0.76563 0.40625
vt 0.78125 0.40625
vt 0.78125 0.43750
vt 0.81250 0.43750
vt 0.81250 0.40625
vt 0.82813 0.40625
vt 0.82813 0.43750
vt 0.85938 0.43750
vt 0.85938 0.40625
vt 0.87500 0.40625
vt 0.87500 0.43750
vt 0.90625 0.43750
vt 0.90625 0.40625
vt 0.92188 0.40625
vt 0.92188 0.43750
vt 0.95313 0.43750
vt 0.95313 0.40625
vt 0.96875 0.40625
vt 0.96875 0.43750
vt 0.01563 0.50000
vt 0.01563 0.46875
vt 0.03125 0.46875
vt 0.03125 0.50000
vt 0.06250 0.50000
vt 0.06250 0.46875
vt 0.07813 0.46875
vt 0.07813 0.50000
vt 0.10938 0.50000
vt 0.10938 0.46875
vt 0.12500 0.46875
vt 0.12500 0.50000
vt 0.20313 0.29688
vt 0.20313 0.28125
vt 0.28125 0.28125
vt 0.28125 0.29688
vt 0.31250 0.29688
vt 0.31250 0.28125
vt 0.39063 0.28125
vt 0.39063 0.29688
vt 0.42188 0.29688
vt 0.42188 0.28125
vt 0.50000 0.28125
vt 0.50000 0.29688
vt 0.53125 0.29688
vt 0.53125 0.28125
vt 0.60938 0.28125
vt 0.60938 0.29688
vt 0.64063 0.29688
vt 0.64063 0.28125
vt 0.71875 0.28125
vt 0.71875 0.29688
vt 0.75000 0.29688
vt 0.75000 0.28125
vt 0.82813 0.28125
vt 0.82813 0.29688
vt 0.85938 0.29688
vt 0.85938 0.28125
vt 0.93750 0.28125
vt 0.93750 0.29688
vt 0.15625 0.48438
vt 0.15625 0.46875
vt 0.23438 0.46875
vt 0.23438 0.48438
vt 0.26563 0.48438
vt 0.26563 0.46875
vt 0.32813 0.46875
vt 0.32813 0.48438
vt 0.35938 0.48438
vt 0.35938 0.46875
vt 0.40625 0.46875
vt 0.40625 0.48438
vt 0.43750 0.48438
vt 0.43750 0.46875
vt 0.48438 0.46875
vt 0.48438 0.48438
vt 0.51563 0.48438
vt 0.51563 0.46875
vt 0.56250 0.46875
vt 0.56250 0.48438
vt 0.59375 0.48438
vt 0.59375 0.46875
vt 0.64063 0.46875
vt 0.64063 0.48438
vt 0.67188 0.48438
vt 0.67188 0.46875
vt 0.71875 0.46875
vt 0.71875 0.48438
vt 0.75000 0.48438
vt 0.75000 0.46875
vt 0.79688 0.46875
vt 0.79688 0.48438
vt 0.82813 0.48438
vt 0.82813 0.46875
vt 0.87500 0.46875
vt 0.87500 0.48438
vt 0.90625 0.48438
vt 0.90625 0.46875
vt 0.95313 0.46875
vt 0.95313 0.48438
vt 0.01563 0.54688
vt 0.01563 0.53125
vt 0.06250 0.53125
vt 0.06250 0.54688
vt 0.09375 0.54688
vt 0.09375 0.53125
vt 0.14063 0.53125
vt 0.14063 0.54688
vt 0.17188 0.54688
vt 0.17188 0.53125
vt 0.21875 0.53125
vt 0.21875 0.54688
vt 0.25000 0.54688
vt 0.25000 0.53125
vt 0.29688 0.53125
vt 0.29688 0.54688
vt 0.32813 0.54688
vt 0.32813 0.53125
vt 0.37500 0.53125
vt 0.37500 0.54688
vt 0.40625 0.54688
vt 0.40625 0.53125
vt 0.45313 0.53125
vt 0.45313 0.54688
vt 0.48438 0.54688
vt 0.48438 0.53125
vt 0.51563 0.53125
vt 0.51563 0.54688
vt 0.54688 0.54688
vt 0.54688 0.53125
vt 0.57813 0.53125
vt 0.57813 0.54688
vt 0.60938 0.54688
vt 0.60938 0.53125
vt 0.64063 0.53125
vt 0.64063 0.54688
vt 0.67188 0.54688
vt 0.67188 0.53125
vt 0.70313 0.53125
vt 0.70313 0.54688
vt 0.73438 0.54688
vt 0.73438 0.53125
vt 0.76563 0.53125
vt 0.76563 0.54688
vt 0.79688 0.54688
vt 0.79688 0.53125
vt 0.82813 0.53125
vt 0.82813 0.54688
vt 0.85938 0.54688
vt 0.85938 0.53125
vt 0.89063 0.53125
vt 0.89063 0.54688
vt 0.92188 0.54688
vt 0.92188 0.53125
vt 0.95313 0.53125
vt 0.95313 0.54688
vt 0.01563 0.59375
vt 0.01563 0.57813
vt 0.04688 0.57813
vt 0.04688 0.59375
vt 0.07813 0.59375
vt 0.07813 0.57813
vt 0.10938 0.57813
vt 0.10938 0.59375
vt 0.14063 0.59375
vt 0.14063 0.57813
vt 0.17188 0.57813
vt 0.17188 0.59375
vt 0.96875 0.29688
vt 0.96875 0.28125
vt 0.98438 0.28125
vt 0.98438 0.29688
vt 0.20313 0.59375
vt 0.20313 0.57813
vt 0.21875 0.57813
vt 0.21875 0.59375
vt 0.25000 0.59375
vt 0.25000 0.57813
vt 0.26563 0.57813
vt 0.26563 0.59375
vt 0.29688 0.59375
vt 0.29688 0.57813
vt 0.31250 0.57813
vt 0.31250 0.59375
vt 0.34375 0.59375
vt 0.34375 0.57813
vt 0.35938 0.57813
vt 0.35938 0.59375
vt 0.39063 0.59375
vt 0.39063 0.57813
vt 0.40625 0.57813
vt 0.40625 0.59375
vt 0.43750 0.59375
vt 0.43750 0.57813
vt 0.45313 0.57813
vt 0.45313 0.59375
vt 0.48438 0.59375
vt 0.48438 0.57813
vt 0.50000 0.57813
vt 0.50000 0.59375
vt 0.53125 0.59375
vt 0.53125 0.57813
vt 0.54688 0.57813
vt 0.54688 0.59375
vt 0.57813 0.59375
vt 0.57813 0.57813
vt 0.59375 0.57813
vt 0.59375 0.59375
vt 0.62500 0.59375
vt 0.62500 0.57813
vt 0.64063 0.57813
vt 0.64063 0.59375
vt 0.67188 0.59375
vt 0.67188 0.57813
vt 0.68750 0.57813
vt 0.68750 0.59375
vt 0.71875 0.59375
vt 0.71875 0.57813
vt 0.73438 0.57813
vt 0.73438 0.59375
vt 0.76563 0.59375
vt 0.76563 0.57813
vt 0.78125 0.57813
vt 0.78125 0.59375
vt 0.81250 0.59375
vt 0.81250 0.57813
vt 0.82813 0.57813
vt 0.82813 0.59375
vt 0.85938 0.59375
vt 0.85938 0.57813
vt 0.87500 0.57813
vt 0.87500 0.59375
vt 0.90625 0.59375
vt 0.90625 0.57813
vt 0.92188 0.57813
vt 0.92188 0.59375
vt 0.95313 0.59375
vt 0.95313 0.57813
vt 0.96875 0.57813
vt 0.96875 0.59375
vt 0.01563 0.64063
vt 0.01563 0.62500
vt 0.03125 0.62500
vt 0.03125 0.64063
vt 0.06250 0.64063
vt 0.06250 0.62500
vt 0.07813 0.62500
vt 0.07813 0.64063
vt 0.10938 0.64063
vt 0.10938 0.62500
vt 0.12500 0.62500
vt 0.12500 0.64063
vt 0.15625 0.64063
vt 0.15625 0.62500
vt 0.17188 0.62500
vt 0.17188 0.64063
vt 0.20313 0.64063
vt 0.20313 0.62500
vt 0.21875 0.62500
vt 0.21875 0.64063
vt 0.25000 0.64063
vt 0.25000 0.62500
vt 0.26563 0.62500
vt 0.26563 0.64063
vt 0.29688 0.64063
vt 0.29688 0.62500
vt 0.31250 0.62500
vt 0.31250 0.64063
vt 0.34375 0.64063
vt 0.34375 0.62500
vt 0.35938 0.62500
vt 0.35938 0.64063
vt 0.39063 0.64063
vt 0.39063 0.62500
vt 0.40625 0.62500
vt 0.40625 0.64063
vt 0.43750 0.64063
vt 0.43750 0.62500
vt 0.45313 0.62500
vt 0.45313 0.64063
vt 0.48438 0.64063
vt 0.48438 0.62500
vt 0.50000 0.62500
vt 0.50000 0.64063
vt 0.53125 0.64063
vt 0.53125 0.62500
vt 0.54688 0.62500
vt 0.54688 0.64063
vt 0.57813 0.64063
vt 0.57813 0.62500
vt 0.59375 0.62500
vt 0.59375 0.64063
vt 0.62500 0.64063
vt 0.62500 0.62500
vt 0.64063 0.62500
vt 0.64063 0.64063
vt 0.67188 0.64063
vt 0.67188 0.62500
vt 0.68750 0.62500
vt 0.68750 0.64063
vt 0.71875 0.64063
vt 0.71875 0.62500
vt 0.73438 0.62500
vt 0.73438 0.64063
vt 0.76563 0.64063
vt 0.76563 0.62500
vt 0.78125 0.62500
vt 0.78125 0.64063
vt 0.81250 0.64063
vt 0.81250 0.62500
vt 0.82813 0.62500
vt 0.82813 0.64063
vt 0.85938 0.64063
vt 0.85938 0.62500
vt 0.87500 0.62500
vt 0.87500 0.64063
vt 0.90625 0.64063
vt 0.90625 0.62500
vt 0.92188 0.62500
vt 0.92188 0.64063
vt 0.95313 0.64063
vt 0.95313 0.62500
vt 0.96875 0.62500
vt 0.96875 0.64063
vt 0.01563 0.68750
vt 0.01563 0.67188
vt 0.03125 0.67188
vt 0.03125 0.68750
vt 0.06250 0.68750
vt 0.06250 0.67188
vt 0.07813 0.67188
vt 0.07813 0.68750
vt 0.10938 0.68750
vt 0.10938 0.67188
vt 0.12500 0.67188
vt 0.12500 0.68750
vt 0.15625 0.68750
vt 0.15625 0.67188
vt 0.17188 0.67188
vt 0.17188 0.68750
vt 0.20313 0.68750
vt 0.20313 0.67188
vt 0.21875 0.67188
vt 0.21875 0.68750
vt 0.25000 0.68750
vt 0.25000 0.67188
vt 0.26563 0.67188
vt 0.26563 0.68750
vt 0.29688 0.68750
vt 0.29688 0.67188
vt 0.31250 0.67188
vt 0.31250 0.68750
vt 0.34375 0.68750
vt 0.34375 0.67188
vt 0.35938 0.67188
vt 0.35938 0.68750
vt 0.39063 0.68750
vt 0.39063 0.67188
vt 0.40625 0.67188
vt 0.40625 0.68750
vt 0.43750 0.68750
vt 0.43750 0.67188
vt 0.45313 0.67188
vt 0.45313 0.68750
vt 0.48438 0.68750
vt 0.48438 0.67188
vt 0.50000 0.67188
vt 0.50000 0.68750
vt 0.53125 0.68750
vt 0.53125 0.67188
vt 0.54688 0.67188
vt 0.54688 0.68750
vt 0.57813 0.68750
vt 0.57813 0.67188
vt 0.59375 0.67188
vt 0.59375 0.68750
vt 0.62500 0.68750
vt 0.62500 0.67188
vt 0.64063 0.67188
vt 0.64063 0.68750
vt 0.67188 0.68750
vt 0.67188 0.67188
vt 0.68750 0.67188
vt 0.68750 0.68750
vt 0.71875 0.68750
vt 0.71875 0.67188
vt 0.73438 0.67188
vt 0.73438 0.68750
vt 0.76563 0.68750
vt 0.76563 0.67188
vt 0.78125 0.67188
vt 0.78125 0.68750
vt 0.81250 0.68750
vt 0.81250 0.67188
vt 0.82813 0.67188
vt 0.82813 0.68750
vt 0.85938 0.68750
vt 0.85938 0.67188
vt 0.87500 0.67188
vt 0.87500 0.68750
vt 0.90625 0.68750
vt 0.90625 0.67188
vt 0.92188 0.67188
vt 0.92188 0.68750
vt 0.95313 0.68750
vt 0.95313 0.67188
vt 0.96875 0.67188
vt 0.96875 0.68750
vt 0.01563 0.73438
vt 0.01563 0.71875
vt 0.03125 0.71875
vt 0.03125 0.73438
vt 0.06250 0.73438
vt 0.06250 0.71875
vt 0.07813 0.71875
vt 0.07813 0.73438
vt 0.10938 0.73438
vt 0.10938 0.71875
vt 0.12500 0.71875
vt 0.12500 0.73438
vt 0.15625 0.73438
vt 0.15625 0.71875
vt 0.17188 0.71875
vt 0.17188 0.73438
vt 0.20313 0.73438
vt 0.20313 0.71875
vt 0.21875 0.71875
vt 0.21875 0.73438
vt 0.25000 0.73438
vt 0.25000 0.71875
vt 0.26563 0.71875
vt 0.26563 0.73438
vt 0.29688 0.73438
vt 0.29688 0.71875
vt 0.31250 0.71875
vt 0.31250 0.73438
vt 0.34375 0.73438
vt 0.34375 0.71875
vt 0.35938 0.71875
vt 0.35938 0.73438
vt 0.39063 0.73438
vt 0.39063 0.71875
vt 0.40625 0.71875
vt 0.40625 0.73438
vt 0.43750 0.73438
vt 0.43750 0.71875
vt 0.45313 0.71875
vt 0.45313 0.73438
vt 0.48438 0.73438
vt 0.48438 0.71875
vt 0.50000 0.71875
vt 0.50000 0.73438
vt 0.53125 0.73438
vt 0.53125 0.71875
vt 0.54688 0.71875
vt 0.54688 0.73438
vt 0.57813 0.73438
vt 0.57813 0.71875
vt 0.59375 0.71875
vt 0.59375 0.73438
vt 0.62500 0.73438
vt 0.62500 0.71875
vt 0.64063 0.71875
vt 0.64063 0.73438
vt 0.67188 0.73438
vt 0.67188 0.71875
vt 0.68750 0.71875
vt 0.68750 0.73438
vt 0.71875 0.73438
vt 0.71875 0.71875
vt 0.73438 0.71875
vt 0.73438 0.73438
vt 0.76563 0.73438
vt 0.76563 0.71875
vt 0.78125 0.71875
vt 0.78125 0.73438
vt 0.81250 0.73438
vt 0.81250 0.71875
vt 0.82813 0.71875
vt 0.82813 0.73438
vt 0.85938 0.73438
vt 0.85938 0.71875
vt 0.87500 0.71875
vt 0.87500 0.73438
vt 0.90625 0.73438
vt 0.90625 0.71875
vt 0.92188 0.71875
vt 0.92188 0.73438
vt 0.95313 0.73438
vt 0.95313 0.71875
vt 0.96875 0.71875
vt 0.96875 0.73438
vt 0.01563 0.78125
vt 0.01563 0.76563
vt 0.03125 0.76563
vt 0.03125 0.78125
vt 0.06250 0.78125
vt 0.06250 0.76563
vt 0.07813 0.76563
vt 0.07813 0.78125
vt 0.10938 0.78125
vt 0.10938 0.76563
vt 0.12500 0.76563
vt 0.12500 0.78125
vt 0.15625 0.78125
vt 0.15625 0.76563
vt 0.17188 0.76563
vt 0.17188 0.78125
vt 0.20313 0.78125
vt 0.20313 0.76563
vt 0.21875 0.76563
vt 0.21875 0.78125
vt 0.25000 0.78125
vt 0.25000 0.76563
vt 0.26563 0.76563
vt 0.26563 0.78125
vt 0.29688 0.78125
vt 0.29688 0.76563
vt 0.31250 0.76563
vt 0.31250 0.78125
vt 0.34375 0.78125
vt 0.34375 0.76563
vt 0.35938 0.76563
vt 0.35938 0.78125
vt 0.39063 0.78125
vt 0.39063 0.76563
vt 0.40625 0.76563
vt 0.40625 0.78125
vt 0.43750 0.78125
vt 0.43750 0.76563
vt 0.45313 0.76563
vt 0.45313 0.78125
vt 0.48438 0.78125
vt 0.48438 0.76563
vt 0.50000 0.76563
vt 0.50000 0.78125
vt 0.53125 0.78125
vt 0.53125 0.76563
vt 0.54688 0.76563
vt 0.54688 0.78125
vt 0.57813 0.78125
vt 0.57813 0.76563
vt 0.59375 0.76563
vt 0.59375 0.78125
vt 0.62500 0.78125
vt 0.62500 0.76563
vt 0.64063 0.76563
vt 0.64063 0.78125
vt 0.67188 0.78125
vt 0.67188 0.76563
vt 0.68750 0.76563
vt 0.68750 0.78125
vt 0.71875 0.78125
vt 0.71875 0.76563
vt 0.73438 0.76563
vt 0.73438 0.78125
vt 0.76563 0.78125
vt 0.76563 0.76563
vt 0.78125 0.76563
vt 0.78125 0.78125
vt 0.81250 0.78125
vt 0.81250 0.76563
vt 0.82813 0.76563
vt 0.82813 0.78125
vt 0.85938 0.78125
vt 0.85938 0.76563
vt 0.87500 0.76563
vt 0.87500 0.78125
vt 0.90625 0.78125
vt 0.90625 0.76563
vt 0.92188 0.76563
vt 0.92188 0.78125
vt 0.95313 0.78125
vt 0.95313 0.76563
vt 0.96875 0.76563
vt 0.96875 0.78125
vt 0.01563 0.82813
vt 0.01563 0.81250
vt 0.03125 0.81250
vt 0.03125 0.82813
vt 0.06250 0.82813
vt 0.06250 0.81250
vt 0.07813 0.81250
vt 0.07813 0.82813
vt 0.10938 0.82813
vt 0.10938 0.81250
vt 0.12500 0.81250
vt 0.12500 0.82813
vt 0.15625 0.82813
vt 0.15625 0.81250
vt 0.17188 0.81250
vt 0.17188 0.82813
vt 0.20313 0.82813
vt 0.20313 0.81250
vt 0.21875 0.81250
vt 0.21875 0.82813
vt 0.25000 0.82813
vt 0.25000 0.81250
vt 0.26563 0.81250
vt 0.26563 0.82813
vt 0.29688 0.82813
vt 0.29688 0.81250
vt 0.31250 0.81250
vt 0.31250 0.82813
vt 0.34375 0.82813
vt 0.34375 0.81250
vt 0.35938 0.81250
vt 0.35938 0.82813
vt 0.39063 0.82813
vt 0.39063 0.81250
vt 0.40625 0.81250
vt 0.40625 0.82813
vt 0.43750 0.82813
vt 0.43750 0.81250
vt 0.45313 0.81250
vt 0.45313 0.82813
vt 0.48438 0.82813
vt 0.48438 0.81250
vt 0.50000 0.81250
vt 0.50000 0.82813
vt 0.53125 0.82813
vt 0.53125 0.81250
vt 0.54688 0.81250
vt 0.54688 0.82813
vt 0.57813 0.82813
vt 0.57813 0.81250
vt 0.59375 0.81250
vt 0.59375 0.82813
vt 0.62500 0.82813
vt 0.62500 0.81250
vt 0.64063 0.81250
vt 0.64063 0.82813
vt 0.67188 0.82813
vt 0.67188 0.81250
vt 0.68750 0.81250
vt 0.68750 0.82813
vt 0.71875 0.82813
vt 0.71875 0.81250
vt 0.73438 0.81250
vt 0.73438 0.82813
vt 0.76563 0.82813
vt 0.76563 0.81250
vt 0.78125 0.81250
vt 0.78125 0.82813
vt 0.81250 0.82813
vt 0.81250 0.81250
vt 0.82813 0.81250
vt 0.82813 0.82813
vt 0.85938 0.82813
vt 0.85938 0.81250
vt 0.87500 0.81250
vt 0.87500 0.82813
vt 0.90625 0.82813
vt 0.90625 0.81250
vt 0.92188 0.81250
vt 0.92188 0.82813
vt 0.95313 0.82813
vt 0.95313 0.81250
vt 0.96875 0.81250
vt 0.96875 0.82813
vt 0.01563 0.87500
vt 0.01563 0.85938
vt 0.03125 0.85938
vt 0.03125 0.87500
vt 0.06250 0.87500
vt 0.06250 0.85938
vt 0.07813 0.85938
vt 0.07813 0.87500
vt 0.10938 0.87500
vt 0.10938 0.85938
vt 0.12500 0.85938
vt 0.12500 0.87500
vt 0.15625 0.87500
vt 0.15625 0.85938
vt 0.17188 0.85938
vt 0.17188 0.87500
vt 0.20313 0.87500
vt 0.20313 0.85938
vt 0.21875 0.85938
vt 0.21875 0.87500
vt 0.25000 0.87500
vt 0.25000 0.85938
vt 0.26563 0.85938
vt 0.26563 0.87500
vt 0.29688 0.87500
vt 0.29688 0.85938
vt 0.31250 0.85938
vt 0.31250 0.87500
vt 0.34375 0.87500
vt 0.34375 0.85938
vt 0.35938 0.85938
vt 0.35938 0.87500
vt 0.39063 0.87500
vt 0.39063 0.85938
vt 0.40625 0.85938
vt 0.40625 0.87500
vt 0.43750 0.87500
vt 0.43750 0.85938
vt 0.45313 0.85938
vt 0.45313 0.87500
vt 0.48438 0.87500
vt 0.48438 0.85938
vt 0.50000 0.85938
vt 0.50000 0.87500
vt 0.53125 0.87500
vt 0.53125 0.85938
vt 0.54688 0.85938
vt 0.54688 0.87500
vt 0.57813 0.87500
vt 0.57813 0.85938
vt 0.59375 0.85938
vt 0.59375 0.87500
vt 0.62500 0.87500
vt 0.62500 0.85938
vt 0.64063 0.85938
vt 0.64063 0.87500
vt 0.67188 0.87500
vt 0.67188 0.85938
vt 0.68750 0.85938
vt 0.68750 0.87500
vt 0.71875 0.87500
vt 0.71875 0.85938
vt 0.73438 0.85938
vt 0.73438 0.87500
vt 0.76563 0.87500
vt 0.76563 0.85938
vt 0.78125 0.85938
vt 0.78125 0.87500
vt 0.81250 0.87500
vt 0.81250 0.85938
vt 0.82813 0.85938
vt 0.82813 0.87500
vt 0.85938 0.87500
vt 0.85938 0.85938
vt 0.87500 0.85938
vt 0.87500 0.87500
vt 0.90625 0.87500
vt 0.90625 0.85938
vt 0.92188 0.85938
vt 0.92188 0.87500
vt 0.95313 0.87500
vt 0.95313 0.85938
vt 0.96875 0.85938
vt 0.96875 0.87500
vt 0.01563 0.92188
vt 0.01563 0.90625
vt 0.03125 0.90625
vt 0.03125 0.92188
vt 0.06250 0.92188
vt 0.06250 0.90625
vt 0.07813 0.90625
vt 0.07813 0.92188
vt 0.10938 0.92188
vt 0.10938 0.90625
vt 0.12500 0.90625
vt 0.12500 0.92188
vt 0.15625 0.92188
vt 0.15625 0.90625
vt 0.17188 0.90625
vt 0.17188 0.92188
vt 0.20313 0.92188
vt 0.20313 0.90625
vt 0.21875 0.90625
vt 0.21875 0.92188
vt 0.25000 0.92188
vt 0.25000 0.90625
vt 0.26563 0.90625
vt 0.26563 0.92188
vt 0.29688 0.92188
vt 0.29688 0.90625
vt 0.31250 0.90625
vt 0.31250 0.92188

g Matrix_1
usemtl lantern_Material
f 1/9/2 2/10/2 3/11/2 4/12/2
f 5/57/2 6/58/2 7/59/2 8/60/2
f 9/65/2 10/66/2 11/67/2 12/68/2
f 13/181/2 14/182/2 15/183/2 16/184/2
f 17/185/2 18/186/2 19/187/2 20/188/2
f 21/33/2 22/34/2 23/35/2 24/36/2
f 25/173/2 26/174/2 27/175/2 28/176/2
f 29/81/2 30/82/2 31/83/2 32/84/2
f 33/69/2 34/70/2 25/71/2 35/72/2
f 36/77/2 37/78/2 38/79/2 34/80/2
f 39/113/2 40/114/2 41/115/2 42/116/2
f 43/201/2 44/202/2 45/203/2 46/204/2
f 47/221/2 48/222/2 49/223/2 50/224/2
f 51/329/2 52/330/2 53/331/2 54/332/2
f 55/289/2 56/290/2 57/291/2 58/292/2
f 59/233/2 60/234/2 61/235/2 62/236/2
f 63/225/2 64/226/2 65/227/2 66/228/2
f 67/249/2 4/250/2 68/251/2 69/252/2
f 48/245/2 9/246/2 70/247/2 71/248/2
f 72/257/2 47/258/2 73/259/2 74/260/2
f 75/253/2 76/254/2 1/255/2 77/256/2
f 78/389/2 79/390/2 80/391/2 81/392/2
f 82/393/2 50/394/2 83/395/2 84/396/2
f 85/433/2 86/434/2 87/435/2 88/436/2
f 89/401/2 90/402/2 91/403/2 92/404/2
f 93/497/2 94/498/2 95/499/2 22/500/2
f 96/489/2 97/490/2 98/491/2 99/492/2
f 49/493/2 100/494/2 101/495/2 102/496/2
f 103/557/2 104/558/2 105/559/2 106/560/2
f 107/569/2 108/570/2 109/571/2 110/572/2
f 45/565/2 111/566/2 112/567/2 113/568/2
f 114/553/2 115/554/2 116/555/2 117/556/2
f 118/541/2 119/542/2 120/543/2 121/544/2
f 122/545/2 123/546/2 124/547/2 44/548/2
f 83/549/2 125/550/2 21/551/2 126/552/2
f 94/537/2 66/538/2 59/539/2 127/540/2
f 128/561/2 129/562/2 93/563/2 130/564/2
f 131/533/2 99/534/2 132/535/2 133/536/2
f 134/509/2 96/510/2 135/511/2 136/512/2
f 100/505/2 12/506/2 137/507/2 138/508/2
f 139/501/2 82/502/2 140/503/2 141/504/2
f 3/525/2 35/526/2 142/527/2 143/528/2
f 144/529/2 74/530/2 139/531/2 145/532/2
f 41/521/2 77/522/2 67/523/2 30/524/2
f 10/513/2 42/514/2 29/515/2 146/516/2
f 147/517/2 148/518/2 144/519/2 149/520/2
f 150/573/2 151/574/2 33/575/2 2/576/2
f 152/633/2 153/634/2 72/635/2 148/636/2
f 154/1/1 155/2/1 156/3/1 157/4/1
f 158/45/1 159/46/1 160/47/1 161/48/1
f 162/61/1 163/62/1 164/63/1 165/64/1
f 166/25/1 167/26/1 168/27/1 169/28/1
f 170/85/1 171/86/1 172/87/1 173/88/1
f 174/89/1 175/90/1 176/91/1 177/92/1
f 178/73/1 173/74/1 179/75/1 180/76/1
f 179/125/1 181/126/1 182/127/1 183/128/1
f 184/169/1 185/170/1 186/171/1 187/172/1
f 188/165/1 189/166/1 190/167/1 191/168/1
f 192/161/1 193/162/1 194/163/1 195/164/1
f 196/205/1 197/206/1 198/207/1 199/208/1
f 200/217/1 201/218/1 202/219/1 203/220/1
f 204/309/1 205/310/1 206/311/1 207/312/1
f 208/317/1 209/318/1 210/319/1 211/320/1
f 212/325/1 213/326/1 154/327/1 214/328/1
f 215/321/1 216/322/1 165/323/1 202/324/1
f 217/361/1 218/362/1 203/363/1 219/364/1
f 220/357/1 157/358/1 221/359/1 222/360/1
f 223/353/1 224/354/1 225/355/1 226/356/1
f 227/305/1 228/306/1 229/307/1 230/308/1
f 231/365/1 232/366/1 200/367/1 233/368/1
f 234/385/1 235/386/1 236/387/1 237/388/1
f 238/421/1 239/422/1 240/423/1 241/424/1
f 242/453/1 243/454/1 244/455/1 245/456/1
f 168/457/1 246/458/1 247/459/1 248/460/1
f 249/469/1 250/470/1 251/471/1 252/472/1
f 253/465/1 254/466/1 255/467/1 201/468/1
f 256/617/1 169/618/1 257/619/1 232/620/1
f 258/589/1 207/590/1 208/591/1 247/592/1
f 259/593/1 248/594/1 260/595/1 261/596/1
f 262/585/1 263/586/1 249/587/1 264/588/1
f 265/577/1 266/578/1 252/579/1 267/580/1
f 268/581/1 269/582/1 162/583/1 255/584/1
f 270/609/1 271/610/1 233/611/1 272/612/1
f 273/613/1 274/614/1 178/615/1 155/616/1
f 275/605/1 272/606/1 217/607/1 276/608/1
f 176/597/1 214/598/1 220/599/1 185/600/1
f 277/601/1 177/602/1 184/603/1 164/604/1
f 278/645/1 276/646/1 279/647/1 280/648/1
f 156/641/1 180/642/1 281/643/1 282/644/1
f 279/649/1 219/650/1 283/651/1 284/652/1
f 285/657/1 286/658/1 287/659/1 288/660/1
f 289/653/1 290/654/1 291/655/1 292/656/1
f 293/625/1 294/626/1 295/627/1 197/628/1
f 296/621/1 297/622/1 298/623/1 299/624/1
f 300/629/1 301/630/1 302/631/1 303/632/1
f 198/637/1 304/638/1 305/639/1 306/640/1
f 4/13/3 3/14/3 155/15/3 154/16/3
f 8/53/3 7/54/3 159/55/3 158/56/3
f 16/109/3 15/110/3 26/111/3 25/112/3
f 20/121/3 19/122/3 30/123/3 29/124/3
f 24/21/3 23/22/3 167/23/3 166/24/3
f 28/117/3 27/118/3 171/119/3 170/120/3
f 32/97/3 31/98/3 175/99/3 174/100/3
f 12/93/3 11/94/3 163/95/3 162/96/3
f 35/105/3 25/106/3 173/107/3 178/108/3
f 173/101/3 172/102/3 189/103/3 188/104/3
f 177/197/3 176/198/3 193/199/3 192/200/3
f 46/213/3 45/214/3 197/215/3 196/216/3
f 54/337/3 53/338/3 60/339/3 59/340/3
f 58/333/3 57/334/3 4/335/3 67/336/3
f 62/341/3 61/342/3 205/343/3 204/344/3
f 69/241/3 68/242/3 213/243/3 212/244/3
f 50/229/3 49/230/3 201/231/3 200/232/3
f 71/237/3 70/238/3 216/239/3 215/240/3
f 74/313/3 73/314/3 218/315/3 217/316/3
f 207/345/3 206/346/3 224/347/3 223/348/3
f 214/349/3 154/350/3 228/351/3 227/352/3
f 81/377/3 80/378/3 235/379/3 234/380/3
f 106/445/3 105/446/3 286/447/3 285/448/3
f 113/425/3 112/426/3 294/427/3 293/428/3
f 88/953/3 87/954/3 104/955/3 103/956/3
f 92/957/3 91/958/3 111/959/3 45/960/3
f 117/961/3 116/962/3 35/963/3 3/964/3
f 121/941/3 120/942/3 74/943/3 144/944/3
f 22/945/3 95/946/3 246/947/3 168/948/3
f 126/949/3 21/950/3 169/951/3 256/952/3
f 127/965/3 59/966/3 207/967/3 258/968/3
f 84/981/3 83/982/3 232/983/3 231/984/3
f 130/985/3 93/986/3 248/987/3 259/988/3
f 133/989/3 132/990/3 263/991/3 262/992/3
f 99/969/3 98/970/3 250/971/3 249/972/3
f 102/973/3 101/974/3 254/975/3 253/976/3
f 136/977/3 135/978/3 266/979/3 265/980/3
f 138/937/3 137/938/3 269/939/3 268/940/3
f 141/897/3 140/898/3 271/899/3 270/900/3
f 143/901/3 142/902/3 274/903/3 273/904/3
f 145/905/3 139/906/3 272/907/3 275/908/3
f 30/885/3 67/886/3 214/887/3 176/888/3
f 146/889/3 29/890/3 177/891/3 277/892/3
f 149/893/3 144/894/3 276/895/3 278/896/3
f 155/909/3 178/910/3 297/911/3 296/912/3
f 276/925/3 217/926/3 301/927/3 300/928/3
f 288/929/3 287/930/3 239/931/3 238/932/3
f 197/933/3 295/934/3 243/935/3 242/936/3
f 157/5/4 156/6/4 2/7/4 1/8/4
f 219/17/4 184/18/4 42/19/4 72/20/4
f 161/49/4 160/50/4 6/51/4 5/52/4
f 34/177/4 38/178/4 14/179/4 13/180/4
f 42/133/4 41/134/4 18/135/4 17/136/4
f 169/29/4 168/30/4 22/31/4 21/32/4
f 180/129/4 179/130/4 34/131/4 33/132/4
f 183/141/4 182/142/4 37/143/4 36/144/4
f 187/153/4 186/154/4 40/155/4 39/156/4
f 191/149/4 190/150/4 181/151/4 179/152/4
f 195/145/4 194/146/4 185/147/4 184/148/4
f 199/209/4 198/210/4 44/211/4 43/212/4
f 66/285/4 65/286/4 52/287/4 51/288/4
f 77/293/4 1/294/4 56/295/4 55/296/4
f 248/301/4 208/302/4 66/303/4 93/304/4
f 211/297/4 210/298/4 64/299/4 63/300/4
f 267/281/4 251/282/4 97/283/4 134/284/4
f 201/265/4 162/266/4 12/267/4 49/268/4
f 272/273/4 200/274/4 50/275/4 139/276/4
f 222/277/4 221/278/4 76/279/4 75/280/4
f 226/269/4 225/270/4 209/271/4 208/272/4
f 230/261/4 229/262/4 157/263/4 220/264/4
f 237/381/4 236/382/4 79/383/4 78/384/4
f 292/405/4 291/406/4 108/407/4 107/408/4
f 306/409/4 305/410/4 123/411/4 122/412/4
f 110/913/4 109/914/4 86/915/4 85/916/4
f 44/917/4 124/918/4 90/919/4 89/920/4
f 2/921/4 33/922/4 115/923/4 114/924/4
f 148/993/4 72/994/4 119/995/4 118/996/4
f 232/1065/4 257/1066/4 125/1067/4 83/1068/4
f 261/1069/4 260/1070/4 129/1071/4 128/1072/4
f 264/1073/4 249/1074/4 99/1075/4 131/1076/4
f 185/1053/4 220/1054/4 77/1055/4 41/1056/4
f 280/1057/4 279/1058/4 148/1059/4 147/1060/4
f 282/1061/4 281/1062/4 151/1063/4 150/1064/4
f 284/1077/4 283/1078/4 153/1079/4 152/1080/4
f 299/1093/4 298/1094/4 180/1095/4 156/1096/4
f 303/1097/4 302/1098/4 219/1099/4 279/1100/4
f 241/1101/4 240/1102/4 290/1103/4 289/1104/4
f 245/1081/4 244/1082/4 304/1083/4 198/1084/4
f 113/137/5 293/138/5 197/139/5 45/140/5
f 44/157/5 198/158/5 306/159/5 122/160/5
f 88/417/5 103/418/5 110/419/5 85/420/5
f 92/413/5 45/414/5 44/415/5 89/416/5
f 84/397/5 231/398/5 271/399/5 140/400/5
f 288/441/5 238/442/5 241/443/5 289/444/5
f 197/429/5 242/430/5 245/431/5 198/432/5
f 106/461/5 307/462/5 60/463/5 53/464/5
f 52/481/5 65/482/5 308/483/5 107/484/5
f 22/485/5 168/486/5 248/487/5 93/488/5
f 309/473/5 285/474/5 224/475/5 206/476/5
f 209/477/5 225/478/5 292/479/5 310/480/5
f 81/1085/5 105/1086/5 104/1087/5 87/1088/5
f 86/1089/5 109/1090/5 108/1091/5 78/1092/5
f 54/1049/5 59/1050/5 66/1051/5 51/1052/5
f 46/1009/5 27/1010/5 26/1011/5 15/1012/5
f 16/1013/5 25/1014/5 34/1015/5 13/1016/5
f 117/1017/5 3/1018/5 2/1019/5 114/1020/5
f 58/997/5 67/998/5 77/999/5 55/1000/5
f 20/1001/5 29/1002/5 42/1003/5 17/1004/5
f 121/1005/5 144/1006/5 148/1007/5 118/1008/5
f 14/1021/5 38/1022/5 37/1023/5 43/1024/5
f 307/1037/5 309/1038/5 205/1039/5 61/1040/5
f 24/1041/5 166/1042/5 169/1043/5 21/1044/5
f 62/1045/5 204/1046/5 207/1047/5 59/1048/5
f 126/1025/5 256/1026/5 232/1027/5 83/1028/5
f 66/1029/5 208/1030/5 211/1031/5 63/1032/5
f 130/1033/5 259/1034/5 261/1035/5 128/1036/5
f 64/881/5 210/882/5 310/883/5 308/884/5
f 99/729/5 249/730/5 266/731/5 135/732/5
f 97/733/5 251/734/5 201/735/5 49/736/5
f 141/737/5 270/738/5 272/739/5 139/740/5
f 28/717/5 170/718/5 173/719/5 25/720/5
f 143/721/5 273/722/5 155/723/5 3/724/5
f 69/725/5 212/726/5 214/727/5 67/728/5
f 32/741/5 174/742/5 177/743/5 29/744/5
f 12/757/5 162/758/5 216/759/5 70/760/5
f 50/761/5 200/762/5 218/763/5 73/764/5
f 145/765/5 275/766/5 276/767/5 144/768/5
f 149/745/5 278/746/5 280/747/5 147/748/5
f 34/749/5 179/750/5 183/751/5 36/752/5
f 2/753/5 156/754/5 282/755/5 150/756/5
f 77/713/5 220/714/5 222/715/5 75/716/5
f 42/673/5 184/674/5 187/675/5 39/676/5
f 148/677/5 279/678/5 284/679/5 152/680/5
f 207/681/5 223/682/5 226/683/5 208/684/5
f 171/661/5 196/662/5 189/663/5 172/664/5
f 173/665/5 188/666/5 191/667/5 179/668/5
f 155/669/5 296/670/5 299/671/5 156/672/5
f 214/685/5 227/686/5 230/687/5 220/688/5
f 177/701/5 192/702/5 195/703/5 184/704/5
f 276/705/5 300/706/5 303/707/5 279/708/5
f 181/709/5 190/710/5 199/711/5 182/712/5
f 286/689/5 234/690/5 239/691/5 287/692/5
f 290/693/5 240/694/5 237/695/5 291/696/5
f 294/37/6 112/38/6 123/39/6 305/40/6
f 159/41/6 7/42/6 6/43/6 160/44/6
f 311/189/6 312/190/6 8/191/6 158/192/6
f 161/193/6 5/194/6 313/195/6 314/196/6
f 312/369/6 80/370/6 79/371/6 313/372/6
f 235/373/6 311/374/6 314/375/6 236/376/6
f 111/437/6 91/438/6 90/439/6 124/440/6
f 243/449/6 295/450/6 304/451/6 244/452/6
f 35/697/6 116/698/6 115/699/6 33/700/6
f 4/769/6 57/770/6 56/771/6 1/772/6
f 30/841/6 19/842/6 18/843/6 41/844/6
f 74/845/6 120/846/6 119/847/6 72/848/6
f 167/849/6 23/850/6 22/851/6 168/852/6
f 246/829/6 95/830/6 127/831/6 258/832/6
f 169/833/6 21/834/6 125/835/6 257/836/6
f 232/837/6 83/838/6 133/839/6 262/840/6
f 248/853/6 93/854/6 129/855/6 260/856/6
f 263/869/6 132/870/6 99/871/6 249/872/6
f 250/873/6 98/874/6 102/875/6 253/876/6
f 264/877/6 131/878/6 136/879/6 265/880/6
f 254/857/6 101/858/6 138/859/6 268/860/6
f 269/861/6 137/862/6 12/863/6 162/864/6
f 267/865/6 134/866/6 50/867/6 200/868/6
f 274/825/6 142/826/6 35/827/6 178/828/6
f 213/785/6 68/786/6 4/787/6 154/788/6
f 175/789/6 31/790/6 30/791/6 176/792/6
f 163/793/6 11/794/6 146/795/6 277/796/6
f 201/773/6 49/774/6 71/775/6 215/776/6
f 272/777/6 139/778/6 74/779/6 217/780/6
f 180/781/6 33/782/6 151/783/6 281/784/6
f 157/797/6 1/798/6 76/799/6 221/800/6
f 185/813/6 41/814/6 40/815/6 186/816/6
f 219/817/6 72/818/6 153/819/6 283/820/6
f 297/821/6 178/822/6 180/823/6 298/824/6
f 228/801/6 154/802/6 157/803/6 229/804/6
f 193/805/6 176/806/6 185/807/6 194/808/6
f 301/809/6 217/810/6 219/811/6 302/812/6
