# This file was created with Minddesk Qubicle 3.0
# Get Qubicle at www.getqubicle.com

mtllib flashlight.mtl

vn 0.0 0.0 1.0
vn 0.0 0.0 -1.0
vn -1.0 0.0 0.0
vn 1.0 0.0 0.0
vn 0.0 1.0 0.0
vn 0.0 -1.0 0.0

v 4.00000 3.00000 -1.00000
v 4.00000 1.00000 -1.00000
v -3.00000 1.00000 -1.00000
v -3.00000 3.00000 -1.00000
v -3.00000 3.00000 -2.00000
v -3.00000 1.00000 -2.00000
v -5.00000 1.00000 -2.00000
v -5.00000 3.00000 -2.00000
v -4.00000 1.00000 -2.00000
v -4.00000 0.00000 -2.00000
v -5.00000 0.00000 -2.00000
v -4.00000 4.00000 -2.00000
v -4.00000 3.00000 -2.00000
v -5.00000 4.00000 -2.00000
v -3.00000 0.00000 -1.00000
v -4.00000 0.00000 -1.00000
v -4.00000 1.00000 -1.00000
v -3.00000 4.00000 -1.00000
v -4.00000 3.00000 -1.00000
v -4.00000 4.00000 -1.00000
v -3.00000 3.00000 1.00000
v -3.00000 1.00000 1.00000
v 4.00000 1.00000 1.00000
v 4.00000 3.00000 1.00000
v -5.00000 3.00000 2.00000
v -5.00000 1.00000 2.00000
v -3.00000 1.00000 2.00000
v -3.00000 3.00000 2.00000
v -4.00000 1.00000 1.00000
v -4.00000 0.00000 1.00000
v -3.00000 0.00000 1.00000
v -4.00000 4.00000 1.00000
v -4.00000 3.00000 1.00000
v -3.00000 4.00000 1.00000
v -5.00000 0.00000 2.00000
v -4.00000 0.00000 2.00000
v -4.00000 1.00000 2.00000
v -5.00000 4.00000 2.00000
v -4.00000 3.00000 2.00000
v -4.00000 4.00000 2.00000
v -5.00000 4.00000 -1.00000
v -5.00000 4.00000 1.00000
v -5.00000 0.00000 1.00000
v -5.00000 0.00000 -1.00000

vt 0.03125 0.15625
vt 0.03125 0.03125
vt 0.15625 0.03125
vt 0.15625 0.15625
vt 0.21875 0.09375
vt 0.21875 0.03125
vt 0.43750 0.03125
vt 0.43750 0.09375
vt 0.50000 0.09375
vt 0.50000 0.03125
vt 0.71875 0.03125
vt 0.71875 0.09375
vt 0.03125 0.28125
vt 0.03125 0.21875
vt 0.25000 0.21875
vt 0.25000 0.28125
vt 0.31250 0.28125
vt 0.31250 0.21875
vt 0.53125 0.21875
vt 0.53125 0.28125
vt 0.78125 0.09375
vt 0.78125 0.03125
vt 0.84375 0.03125
vt 0.84375 0.09375
vt 0.90625 0.09375
vt 0.90625 0.03125
vt 0.96875 0.03125
vt 0.96875 0.09375
vt 0.59375 0.28125
vt 0.59375 0.21875
vt 0.65625 0.21875
vt 0.65625 0.28125
vt 0.71875 0.28125
vt 0.71875 0.21875
vt 0.78125 0.21875
vt 0.78125 0.28125
vt 0.84375 0.28125
vt 0.84375 0.21875
vt 0.90625 0.21875
vt 0.90625 0.28125
vt 0.03125 0.40625
vt 0.03125 0.34375
vt 0.06250 0.34375
vt 0.06250 0.40625
vt 0.12500 0.40625
vt 0.12500 0.34375
vt 0.15625 0.34375
vt 0.15625 0.40625
vt 0.21875 0.37500
vt 0.21875 0.34375
vt 0.28125 0.34375
vt 0.28125 0.37500
vt 0.34375 0.37500
vt 0.34375 0.34375
vt 0.40625 0.34375
vt 0.40625 0.37500
vt 0.46875 0.37500
vt 0.46875 0.34375
vt 0.50000 0.34375
vt 0.50000 0.37500
vt 0.56250 0.37500
vt 0.56250 0.34375
vt 0.59375 0.34375
vt 0.59375 0.37500
vt 0.65625 0.37500
vt 0.65625 0.34375
vt 0.68750 0.34375
vt 0.68750 0.37500
vt 0.75000 0.37500
vt 0.75000 0.34375
vt 0.78125 0.34375
vt 0.78125 0.37500
vt 0.84375 0.37500
vt 0.84375 0.34375
vt 0.87500 0.34375
vt 0.87500 0.37500
vt 0.93750 0.37500
vt 0.93750 0.34375
vt 0.96875 0.34375
vt 0.96875 0.37500
vt 0.03125 0.50000
vt 0.03125 0.46875
vt 0.06250 0.46875
vt 0.06250 0.50000
vt 0.12500 0.50000
vt 0.12500 0.46875
vt 0.15625 0.46875
vt 0.15625 0.50000
vt 0.21875 0.50000
vt 0.21875 0.46875
vt 0.25000 0.46875
vt 0.25000 0.50000
vt 0.31250 0.50000
vt 0.31250 0.46875
vt 0.34375 0.46875
vt 0.34375 0.50000
vt 0.40625 0.50000
vt 0.40625 0.46875
vt 0.43750 0.46875
vt 0.43750 0.50000
vt 0.50000 0.50000
vt 0.50000 0.46875
vt 0.53125 0.46875
vt 0.53125 0.50000
vt 0.59375 0.50000
vt 0.59375 0.46875
vt 0.62500 0.46875
vt 0.62500 0.50000
vt 0.68750 0.50000
vt 0.68750 0.46875
vt 0.71875 0.46875
vt 0.71875 0.50000
vt 0.78125 0.50000
vt 0.78125 0.46875
vt 0.81250 0.46875
vt 0.81250 0.50000
vt 0.87500 0.50000
vt 0.87500 0.46875
vt 0.90625 0.46875
vt 0.90625 0.50000
vt 0.03125 0.59375
vt 0.03125 0.56250
vt 0.06250 0.56250
vt 0.06250 0.59375
vt 0.12500 0.59375
vt 0.12500 0.56250
vt 0.15625 0.56250
vt 0.15625 0.59375
vt 0.21875 0.59375
vt 0.21875 0.56250
vt 0.25000 0.56250
vt 0.25000 0.59375
vt 0.31250 0.59375
vt 0.31250 0.56250
vt 0.34375 0.56250
vt 0.34375 0.59375

g Matrix_1
usemtl flashlight_Material
f 1/13/2 2/14/2 3/15/2 4/16/2
f 5/33/2 6/34/2 7/35/2 8/36/2
f 9/85/2 10/86/2 11/87/2 7/88/2
f 12/93/2 13/94/2 8/95/2 14/96/2
f 3/89/2 15/90/2 16/91/2 17/92/2
f 18/61/2 4/62/2 19/63/2 20/64/2
f 21/9/1 22/10/1 23/11/1 24/12/1
f 25/29/1 26/30/1 27/31/1 28/32/1
f 29/73/1 30/74/1 31/75/1 22/76/1
f 32/69/1 33/70/1 21/71/1 34/72/1
f 26/121/1 35/122/1 36/123/1 37/124/1
f 38/117/1 25/118/1 39/119/1 40/120/1
f 14/1/3 11/2/3 35/3/3 38/4/3
f 24/25/4 23/26/4 2/27/4 1/28/4
f 4/45/4 3/46/4 6/47/4 5/48/4
f 28/41/4 27/42/4 22/43/4 21/44/4
f 22/53/4 31/54/4 15/55/4 3/56/4
f 34/49/4 21/50/4 4/51/4 18/52/4
f 17/113/4 16/114/4 10/115/4 9/116/4
f 20/109/4 19/110/4 13/111/4 12/112/4
f 37/105/4 36/106/4 30/107/4 29/108/4
f 40/97/4 39/98/4 33/99/4 32/100/4
f 4/17/5 21/18/5 24/19/5 1/20/5
f 41/21/5 42/22/5 34/23/5 18/24/5
f 14/101/5 41/102/5 20/103/5 12/104/5
f 13/129/5 19/130/5 4/131/5 5/132/5
f 42/133/5 38/134/5 40/135/5 32/136/5
f 33/125/5 39/126/5 28/127/5 21/128/5
f 22/5/6 3/6/6 2/7/6 23/8/6
f 43/37/6 44/38/6 15/39/6 31/40/6
f 44/65/6 11/66/6 10/67/6 16/68/6
f 17/57/6 9/58/6 6/59/6 3/60/6
f 35/77/6 43/78/6 30/79/6 36/80/6
f 37/81/6 29/82/6 22/83/6 27/84/6
