%YAML 1.1
%TAG !u! tag:unity3d.com,2011:
--- !u!21 &2100000
Material:
  serializedVersion: 6
  m_ObjectHideFlags: 0
  m_PrefabParentObject: {fileID: 0}
  m_PrefabInternal: {fileID: 0}
  m_Name: New Material
  m_Shader: {fileID: 4800000, guid: e1f34d503f3c749f4b9870e5f4079e6a, type: 3}
  m_ShaderKeywords: EFFECT_BUMP GEOM_TYPE_MESH _OCCLUSIONMAP _PARALLAXMAP _WETNESS_FLOW
  m_LightmapFlags: 4
  m_EnableInstancingVariants: 0
  m_DoubleSidedGI: 0
  m_CustomRenderQueue: -1
  stringTagMap: {}
  disabledShaderPasses: []
  m_SavedProperties:
    serializedVersion: 3
    m_TexEnvs:
    - _BumpMap:
        m_Texture: {fileID: 0}
        m_Scale: {x: 1, y: 1}
        m_Offset: {x: 0, y: 0}
    - _CombinedMap:
        m_Texture: {fileID: 0}
        m_Scale: {x: 1, y: 1}
        m_Offset: {x: 0, y: 0}
    - _DetailAlbedoMap:
        m_Texture: {fileID: 0}
        m_Scale: {x: 6, y: 6}
        m_Offset: {x: 0, y: 0}
    - _DetailMask:
        m_Texture: {fileID: 0}
        m_Scale: {x: 1, y: 1}
        m_Offset: {x: 0, y: 0}
    - _DetailNormalMap:
        m_Texture: {fileID: 0}
        m_Scale: {x: 1, y: 1}
        m_Offset: {x: 0, y: 0}
    - _EmissionMap:
        m_Texture: {fileID: 0}
        m_Scale: {x: 1, y: 1}
        m_Offset: {x: 0, y: 0}
    - _MainTex:
        m_Texture: {fileID: 2800000, guid: 17947821ae67dc749920faab3f6fe9a4, type: 3}
        m_Scale: {x: 1, y: 1}
        m_Offset: {x: 0, y: 0}
    - _MetallicGlossMap:
        m_Texture: {fileID: 0}
        m_Scale: {x: 1, y: 1}
        m_Offset: {x: 0, y: 0}
    - _OcclusionMap:
        m_Texture: {fileID: 2800000, guid: 984a6cfb840f643bbb85588848d19856, type: 3}
        m_Scale: {x: 1, y: 1}
        m_Offset: {x: 0, y: 0}
    - _ParallaxMap:
        m_Texture: {fileID: 2800000, guid: 5cfa8161f3a824e9db0ac9004bb6a701, type: 3}
        m_Scale: {x: 1, y: 1}
        m_Offset: {x: 0, y: 0}
    - _SpecGlossMap:
        m_Texture: {fileID: 0}
        m_Scale: {x: 1, y: 1}
        m_Offset: {x: 0, y: 0}
    - _SpecGlossMap2:
        m_Texture: {fileID: 0}
        m_Scale: {x: 1, y: 1}
        m_Offset: {x: 0, y: 0}
    m_Floats:
    - _BumpScale: 1
    - _Cull: 2
    - _CullShadowPass: 3
    - _Cutoff: 0.5
    - _DetailNormalMapScale: 1
    - _DiffuseScatteringBias: 0
    - _DiffuseScatteringBias2: 0
    - _DiffuseScatteringContraction: 8
    - _DiffuseScatteringContraction2: 8
    - _DiffuseScatteringEnabled: 0
    - _DoubleSided: 0
    - _DstBlend: 0
    - _GlossMapScale: 1
    - _Glossiness: 0.1
    - _Glossiness2: 0.5
    - _GlossyReflections: 1
    - _Lighting: 0
    - _LinearSteps: 20
    - _Lux_FlowInterval: 2.71
    - _Lux_FlowNormalStrength: 0.93
    - _Lux_FlowNormalTiling: 22.53
    - _Lux_FlowRefraction: 0.1
    - _Lux_FlowSpeed: 1.03
    - _Metallic: 0
    - _MixMappingControl: 0
    - _Mode: 0
    - _OcclusionStrength: 1
    - _Parallax: 0.005
    - _ParallaxTiling: 1
    - _PuddleMask: 1
    - _PuddleMaskTiling: 0.5
    - _ScatteringPower: 4
    - _SmoothnessTextureChannel: 0
    - _Snow: 0
    - _SnowDetailStrength: 0.3
    - _SnowMapping: 0
    - _SnowNormalStrength: 1
    - _SnowOpacity: 0.5
    - _SnowSlopeDamp: 0.75
    - _SpecularHighlights: 1
    - _SrcBlend: 1
    - _SyncWaterOfMaterials: 0
    - _TranslucencyStrength: 0.5
    - _UVSec: 0
    - _UseCombinedMap: 0
    - _UseMixMapping: 0
    - _UsePOM: 1
    - _WaterSlopeDamp: 0.465
    - _Wetness: 3
    - _ZWrite: 1
    m_Colors:
    - _Color: {r: 1, g: 1, b: 1, a: 1}
    - _Color2: {r: 1, g: 1, b: 1, a: 1}
    - _DiffuseScatteringCol: {r: 0, g: 0, b: 0, a: 0}
    - _DiffuseScatteringCol2: {r: 0, g: 0, b: 0, a: 0}
    - _EmissionColor: {r: 0, g: 0, b: 0, a: 1}
    - _SnowAccumulation: {r: 0, g: 1, b: 0, a: 0}
    - _SnowDetailTiling: {r: 4, g: 4, b: 0, a: 0}
    - _SnowMaskTiling: {r: 0.3, g: 0.3, b: 0, a: 0}
    - _SnowTiling: {r: 2, g: 2, b: 0, a: 0}
    - _SpecColor: {r: 0.19999996, g: 0.19999996, b: 0.19999996, a: 1}
    - _SpecColor2: {r: 0.19999996, g: 0.19999996, b: 0.19999996, a: 1}
    - _UVRatio: {r: 1, g: 1, b: 0, a: 0}
    - _WaterAccumulationCracksPuddles: {r: 0, g: 0, b: 1.22, a: 4}
    - _WaterAccumulationCracksPuddles2: {r: 0, g: 1, b: 0, a: 1}
    - _WaterColor: {r: 1, g: 1, b: 1, a: 0}
    - _WaterColor2: {r: 0, g: 0, b: 0, a: 0}
